Week 6, Day 2
…
Scene 2

Prompt: Using the joint distribution we calculated in Scene 5 as input, calculate your posterior probability density for the number of red beads in the urn, given that that 10 red were sampled in our paddle of 25.

## # A tibble: 453 x 3
##    urn_red total    probs
##      <dbl> <int>    <dbl>
##  1     136     1 0.000261
##  2     145     1 0.000261
##  3     158     1 0.000261
##  4     160     1 0.000261
##  5     170     2 0.000522
##  6     171     1 0.000261
##  7     173     1 0.000261
##  8     178     2 0.000522
##  9     181     1 0.000261
## 10     182     1 0.000261
## #  with 443 more rows
…
